Project 2
…
highestHp <- lowandHighHp %>% filter(HP_Stats == 'High HP')

lowestHp <- lowandHighHp %>% filter(HP_Stats == 'Low HP')

highestHp

## # A tibble: 29 x 5
##    `Pokemon #` Pokemon               Type   HP_Stats `Total HP`
##          <int> <chr>                 <chr>  <chr>         <int>
##  1         383 GroudonPrimal Groudon Ground High HP         770
##  2         382 KyogrePrimal Kyogre   Water  High HP         770
##  3         493 Arceus                Normal High HP         720
##  4         646 KyuremBlack Kyurem    Dragon High HP         700
##  5         646 KyuremWhite Kyurem    Dragon High HP         700
##  6         717 Yveltal               Dark   High HP         680
##  7         716 Xerneas               Fairy  High HP         680
##  8         250 Ho-oh                 Fire   High HP         680
##  9         487 GiratinaAltered Forme Ghost  High HP         680
## 10         487 GiratinaOrigin Forme  Ghost  High HP         680
## # ... with 19 more rows

lowestHp

## # A tibble: 24 x 5
##    `Pokemon #` Pokemon    Type   HP_Stats `Total HP`
##          <int> <chr>      <chr>  <chr>         <int>
##  1         147 Dratini    Dragon Low HP          300
##  2         371 Bagon      Dragon Low HP          300
##  3         443 Gible      Dragon Low HP          300
##  4         704 Goomy      Dragon Low HP          300
##  5         374 Beldum     Steel  Low HP          300
##  6         436 Bronzor    Steel  Low HP          300
##  7         599 Klink      Steel  Low HP          300
##  8         524 Roggenrola Rock   Low HP          280
##  9         607 Litwick    Ghost  Low HP          275
## 10          50 Diglett    Ground Low HP          265
## # ... with 14 more rows
…
